{
  "images" : [
    {
      "idiom" : "mac",
      "filename" : "dropbox_button 1x.png",
      "scale" : "1x"
    },
    {
      "idiom" : "mac",
      "filename" : "dropbox_button 2x.png",
      "scale" : "2x"
    }
  ],
  "info" : {
    "version" : 1,
    "author" : "xcode"
  }
}